Classification
…
---

# Evaluating Predictions

``` r
mLM <- lm(won ~ hits + accuracy + mental_state + damage_taken + head_shots + gameIdSession,fn)
fn %>%
  mutate(preds = predict(mLM)) %>%
  mutate(predBinary = ifelse(preds > .5,1,0)) %>%
  select(won,predBinary,preds)
```

```
## # A tibble: 957 × 3
##      won predBinary  preds
##    <dbl>      <dbl>  <dbl>
##  1     0          0 0.320 
##  2     0          0 0.239 
##  3     0          0 0.193 
##  4     0          0 0.285 
##  5     0          0 0.148 
##  6     0          0 0.175 
##  7     0          0 0.258 
##  8     0          0 0.115 
##  9     0          0 0.239 
## 10     1          0 0.0982
## # ℹ 947 more rows
```
…
