Clustering
…
---

# What does Trump tweet about?

``` r
counts
```

```
## # A tibble: 45,221 × 2
##    word          n
##    <chr>     <int>
##  1 trump      6269
##  2 president  4637
##  3 amp        4306
##  4 people     3475
##  5 country    2302
##  6 america    2211
##  7 time       1913
##  8 donald     1891
##  9 news       1842
## 10 democrats  1824
## # ℹ 45,211 more rows
```
…
# Looking at Clusters

- Some quick wrangling

``` r
require(tidymodels)
km_out_tidy <- tidy(km_out) %>%
  gather(word,mean_tfidf,-size,-cluster,-withinss) %>% # Convert to long data
  mutate(mean_tfidf = as.numeric(mean_tfidf)) # Calculate average TF-IDF
km_out_tidy
```

```
## # A tibble: 158,850 × 5
##     size withinss cluster word  mean_tfidf
##    <int>    <dbl> <fct>   <chr>      <dbl>
##  1    12    12.6  1       david   0       
##  2     1     0    2       david   0       
##  3     1     0    3       david   0       
##  4     4     7.12 4       david   0       
##  5    16    12.4  5       david   0       
##  6    36    43.0  6       david   0       
##  7   156    54.5  7       david   0.000647
##  8     1     0    8       david   0       
##  9     1     0    9       david   0       
## 10     9     9.95 10      david   0       
## # ℹ 158,840 more rows
```
…
