Clustering and NLP: Text, Tweets, and Sentiment
…
---

# Odds Step 1

``` r
(odds1 <- tweet_words %>%
  count(word, PostPresident) %>%
  spread(PostPresident, n, fill = 0) %>%
  ungroup() %>%
  mutate(totFALSE = sum(`FALSE`),
         totTRUE = sum(`TRUE`)))
```

```
## # A tibble: 45,221 × 5
##    word      `FALSE` `TRUE` totFALSE totTRUE
##    <chr>       <dbl>  <dbl>    <dbl>   <dbl>
##  1 a               6     27   189217  257487
##  2 aa              1      2   189217  257487
##  3 aaa            11      1   189217  257487
##  4 aamp            1      0   189217  257487
##  5 aand            0      1   189217  257487
##  6 aaron           2      1   189217  257487
##  7 ab              1      2   189217  257487
##  8 abaco           0      1   189217  257487
##  9 abandon         6      8   189217  257487
## 10 abandoned      13     11   189217  257487
## # ℹ 45,211 more rows
```
…
---

# Odds Step 2

``` r
(odds2 <- odds1 %>%
  mutate(propFALSE = (`FALSE` + 1) / (totFALSE + 1),
         propTRUE = (`TRUE` + 1) / (totTRUE + 1)))
```

```
## # A tibble: 45,221 × 7
##    word   `FALSE` `TRUE` totFALSE totTRUE propFALSE propTRUE
##    <chr>    <dbl>  <dbl>    <dbl>   <dbl>     <dbl>    <dbl>
##  1 a            6     27   189217  257487   3.70e-5  1.09e-4
##  2 aa           1      2   189217  257487   1.06e-5  1.17e-5
##  3 aaa         11      1   189217  257487   6.34e-5  7.77e-6
##  4 aamp         1      0   189217  257487   1.06e-5  3.88e-6
##  5 aand         0      1   189217  257487   5.28e-6  7.77e-6
##  6 aaron        2      1   189217  257487   1.59e-5  7.77e-6
##  7 ab           1      2   189217  257487   1.06e-5  1.17e-5
##  8 abaco        0      1   189217  257487   5.28e-6  7.77e-6
##  9 aband…       6      8   189217  257487   3.70e-5  3.50e-5
## 10 aband…      13     11   189217  257487   7.40e-5  4.66e-5
## # ℹ 45,211 more rows
```
…
---

# Odds Step 3

``` r
(odds3 <- odds2 %>%
  mutate(odds = propTRUE / propFALSE))
```

```
## # A tibble: 45,221 × 8
##    word   `FALSE` `TRUE` totFALSE totTRUE propFALSE propTRUE
##    <chr>    <dbl>  <dbl>    <dbl>   <dbl>     <dbl>    <dbl>
##  1 a            6     27   189217  257487   3.70e-5  1.09e-4
##  2 aa           1      2   189217  257487   1.06e-5  1.17e-5
##  3 aaa         11      1   189217  257487   6.34e-5  7.77e-6
##  4 aamp         1      0   189217  257487   1.06e-5  3.88e-6
##  5 aand         0      1   189217  257487   5.28e-6  7.77e-6
##  6 aaron        2      1   189217  257487   1.59e-5  7.77e-6
##  7 ab           1      2   189217  257487   1.06e-5  1.17e-5
##  8 abaco        0      1   189217  257487   5.28e-6  7.77e-6
##  9 aband…       6      8   189217  257487   3.70e-5  3.50e-5
## 10 aband…      13     11   189217  257487   7.40e-5  4.66e-5
## # ℹ 45,211 more rows
## # ℹ 1 more variable: odds <dbl>
```
…
<img src="16a_ClusteringPart3_files/figure-html/unnamed-chunk-12-1.png" style="display: block; margin: auto;" />

---

# Odds Step 4

``` r
(prepost_logodds <- odds3 %>%
  mutate(logodds = log(odds))) %>%
  select(word,logodds,odds,everything())
```

```
## # A tibble: 45,221 × 9
##    word      logodds  odds `FALSE` `TRUE` totFALSE totTRUE
##    <chr>       <dbl> <dbl>   <dbl>  <dbl>    <dbl>   <dbl>
##  1 a          1.08   2.94        6     27   189217  257487
##  2 aa         0.0974 1.10        1      2   189217  257487
##  3 aaa       -2.10   0.122      11      1   189217  257487
##  4 aamp      -1.00   0.367       1      0   189217  257487
##  5 aand       0.385  1.47        0      1   189217  257487
##  6 aaron     -0.714  0.490       2      1   189217  257487
##  7 ab         0.0974 1.10        1      2   189217  257487
##  8 abaco      0.385  1.47        0      1   189217  257487
##  9 abandon   -0.0568 0.945       6      8   189217  257487
## 10 abandoned -0.462  0.630      13     11   189217  257487
## # ℹ 45,211 more rows
## # ℹ 2 more variables: propFALSE <dbl>, propTRUE <dbl>
```
…
---

# Meaning

``` r
nrc
```

```
## # A tibble: 13,901 × 2
##    word        sentiment
##    <chr>       <chr>    
##  1 abacus      trust    
##  2 abandon     fear     
##  3 abandon     negative 
##  4 abandon     sadness  
##  5 abandoned   anger    
##  6 abandoned   fear     
##  7 abandoned   negative 
##  8 abandoned   sadness  
##  9 abandonment anger    
## 10 abandonment fear     
## # ℹ 13,891 more rows
```
…
- Divide by pre/post presidency

--

``` r
(word_freq <- tweet_words %>%
  group_by(PostPresident) %>%
  count(word) %>%
  filter(sum(n) >= 5) %>%
  mutate(prop = prop.table(n))) # Faster way of calculating proportions!
```

```
## # A tibble: 54,438 × 4
## # Groups:   PostPresident [2]
##    PostPresident word           n       prop
##    <lgl>         <chr>      <int>      <dbl>
##  1 FALSE         a              6 0.0000317 
##  2 FALSE         aa             1 0.00000528
##  3 FALSE         aaa           11 0.0000581 
##  4 FALSE         aamp           1 0.00000528
##  5 FALSE         aaron          2 0.0000106 
##  6 FALSE         ab             1 0.00000528
##  7 FALSE         abandon        6 0.0000317 
##  8 FALSE         abandoned     13 0.0000687 
##  9 FALSE         abbott         1 0.00000528
## 10 FALSE         abbottabad     1 0.00000528
## # ℹ 54,428 more rows
```
…
---

# Sentiment overall

``` r
tweet_sentiment_summary %>%
  select(PostPresident,document,sentiment,everything())
```

```
## # A tibble: 45,592 × 13
## # Groups:   PostPresident [2]
##    PostPresident   document sentiment anger anticipation
##    <lgl>              <dbl>     <int> <int>        <int>
##  1 FALSE         1701461182         1     1            3
##  2 FALSE         1741160716         0     1            1
##  3 FALSE         1924074459         0     1            1
##  4 FALSE         2045871770        -1     1            0
##  5 FALSE         2317112756        -1     1            0
##  6 FALSE         2346367430        -1     2            1
##  7 FALSE         2403435685         2     1            2
##  8 FALSE         3688564134        -2     1            0
##  9 FALSE         7677152231         0     1            1
## 10 FALSE         8083871612         0     1            1
## # ℹ 45,582 more rows
## # ℹ 8 more variables: disgust <int>, fear <int>, joy <int>,
## #   negative <int>, positive <int>, sadness <int>,
## #   surprise <int>, trust <int>
```
…
