Uncertainty Part 2a
…
# Other NBA Data

--

- Load the `game_summary.Rds` data

``` r
require(tidyverse)
gms <- read_rds('../data/game_summary.Rds')
gms
```

```
## # A tibble: 7,380 × 16
##    idGame yearSeason dateGame   idTeam nameTeam locationGame
##     <dbl>      <int> <date>      <dbl> <chr>    <chr>       
##  1 2.16e7       2017 2016-10-25 1.61e9 Clevela… H           
##  2 2.16e7       2017 2016-10-25 1.61e9 New Yor… A           
##  3 2.16e7       2017 2016-10-25 1.61e9 Portlan… H           
##  4 2.16e7       2017 2016-10-25 1.61e9 Utah Ja… A           
##  5 2.16e7       2017 2016-10-25 1.61e9 Golden … H           
##  6 2.16e7       2017 2016-10-25 1.61e9 San Ant… A           
##  7 2.16e7       2017 2016-10-26 1.61e9 Miami H… A           
##  8 2.16e7       2017 2016-10-26 1.61e9 Orlando… H           
##  9 2.16e7       2017 2016-10-26 1.61e9 Dallas … A           
## 10 2.16e7       2017 2016-10-26 1.61e9 Indiana… H           
## # ℹ 7,370 more rows
## # ℹ 10 more variables: tov <dbl>, pts <dbl>, treb <dbl>,
## #   oreb <dbl>, pctFG <dbl>, pctFT <dbl>, teamrest <dbl>,
## #   second_game <lgl>, isWin <lgl>, ft_80 <dbl>
```
…
