Uncertainty Part 2b
…
---

# Sports Analytics Continued

- Load the `game_summary.Rds` data

``` r
require(tidyverse)
gms <- read_rds('../data/game_summary.Rds')
gms
```

```
## # A tibble: 7,380 × 16
##    idGame yearSeason dateGame   idTeam nameTeam locationGame
##     <dbl>      <int> <date>      <dbl> <chr>    <chr>       
##  1 2.16e7       2017 2016-10-25 1.61e9 Clevela… H           
##  2 2.16e7       2017 2016-10-25 1.61e9 New Yor… A           
##  3 2.16e7       2017 2016-10-25 1.61e9 Portlan… H           
##  4 2.16e7       2017 2016-10-25 1.61e9 Utah Ja… A           
##  5 2.16e7       2017 2016-10-25 1.61e9 Golden … H           
##  6 2.16e7       2017 2016-10-25 1.61e9 San Ant… A           
##  7 2.16e7       2017 2016-10-26 1.61e9 Miami H… A           
##  8 2.16e7       2017 2016-10-26 1.61e9 Orlando… H           
##  9 2.16e7       2017 2016-10-26 1.61e9 Dallas … A           
## 10 2.16e7       2017 2016-10-26 1.61e9 Indiana… H           
## # ℹ 7,370 more rows
## # ℹ 10 more variables: tov <dbl>, pts <dbl>, treb <dbl>,
## #   oreb <dbl>, pctFG <dbl>, pctFT <dbl>, teamrest <dbl>,
## #   second_game <lgl>, isWin <lgl>, ft_80 <dbl>
```
…
- So let's actually calculate this!

--

- The `spread` command to create two columns

``` r
bsRes %>%
  spread(isWin,avgTO,sep = '_') %>%
  mutate(TO_diff = isWin_FALSE - isWin_TRUE)
```

```
## # A tibble: 1,500 × 5
##    yearSeason bsInd isWin_FALSE isWin_TRUE TO_diff
##         <int> <int>       <dbl>      <dbl>   <dbl>
##  1       2017     1        14.3       13.1  1.16  
##  2       2017     2        14.1       12.5  1.60  
##  3       2017     3        13.6       13.9 -0.285 
##  4       2017     4        13.6       12.3  1.34  
##  5       2017     5        14.1       13.4  0.739 
##  6       2017     6        14.3       12.9  1.47  
##  7       2017     7        13.4       13.4 -0.0161
##  8       2017     8        13.7       13    0.696 
##  9       2017     9        13.9       12.5  1.41  
## 10       2017    10        14.2       13.1  1.12  
## # ℹ 1,490 more rows
```
…
