Clustering Part 3
…
So let’s load the NRC sentiment library in and take a look at what it
looks like by calling nrc to the console. (NB: you may need
to answer a question in your console after running the chunk below.
Answer “yes” by typing 1 in the console and hitting ENTER. If you are
unable to knit the HW it is probably because you have to run this chunk
first.)

library(tidytext)
library(textdata)
nrc <- get_sentiments("nrc")
nrc

## # A tibble: 13,872 × 2
##    word        sentiment
##    <chr>       <chr>    
##  1 abacus      trust    
##  2 abandon     fear     
##  3 abandon     negative 
##  4 abandon     sadness  
##  5 abandoned   anger    
##  6 abandoned   fear     
##  7 abandoned   negative 
##  8 abandoned   sadness  
##  9 abandonment anger    
## 10 abandonment fear     
## # ℹ 13,862 more rows
…
